lista_2/test.vcd
$date
	Thu Oct 21 17:58:22 2021
$end
$version
	Icarus Verilog
$end
$timescale
	1s
$end
$scope module testbench $end
$var wire 1 ! out_vartop $end
$var wire 1 " out_simple $end
$var wire 1 # out_neg $end
$var wire 1 $ out_mode $end
$var reg 16 % aaaa [15:0] $end
$var reg 1 & clk $end
$var reg 1 ' rst $end
$scope module mode $end
$var wire 1 & clk $end
$var wire 16 ( comp [15:0] $end
$var wire 1 ) mode $end
$var wire 1 $ out $end
$var wire 1 * pol $end
$var wire 1 ' rst $end
$var wire 16 + top [15:0] $end
$var reg 1 , delta $end
$var reg 16 - state [15:0] $end
$upscope $end
$scope module neg $end
$var wire 1 & clk $end
$var wire 16 . comp [15:0] $end
$var wire 1 / mode $end
$var wire 1 # out $end
$var wire 1 0 pol $end
$var wire 1 ' rst $end
$var wire 16 1 top [15:0] $end
$var reg 1 2 delta $end
$var reg 16 3 state [15:0] $end
$upscope $end
$scope module simple $end
$var wire 1 & clk $end
$var wire 16 4 comp [15:0] $end
$var wire 1 5 mode $end
$var wire 1 " out $end
$var wire 1 6 pol $end
$var wire 1 ' rst $end
$var wire 16 7 top [15:0] $end
$var reg 1 8 delta $end
$var reg 16 9 state [15:0] $end
$upscope $end
$scope module vartop $end
$var wire 1 & clk $end
$var wire 16 : comp [15:0] $end
$var wire 1 ; mode $end
$var wire 1 ! out $end
$var wire 1 < pol $end
$var wire 1 ' rst $end
$var wire 16 = top [15:0] $end
$var reg 1 > delta $end
$var reg 16 ? state [15:0] $end
$upscope $end
$upscope $end
$enddefinitions $end
#0
$dumpvars
bx ?
x>
b10000 =
0<
0;
b1000 :
bx 9
x8
b10000 7
06
05
b1000 4
bx 3
x2
b10000 1
10
0/
b1000 .
bx -
x,
b10000 +
0*
1)
b1000 (
0'
0&
b10000 %
x$
x#
x"
x!
$end
#1
1&
#2
0&
#3
1&
#4
0&
1'
#5
18
0"
b0 9
12
1#
b0 3
1,
0$
b0 -
1>
0!
b0 ?
1&
#6
0&
#7
1&
#8
0&
#9
1&
#10
0&
#11
1&
#12
0&
0'
#13
b1 9
b1 3
b1 -
b1 ?
1&
#14
0&
#15
b10 ?
b10 -
b10 3
b10 9
1&
#16
0&
#17
b11 9
b11 3
b11 -
b11 ?
1&
#18
0&
#19
b100 ?
b100 -
b100 3
b100 9
1&
#20
0&
#21
b101 9
b101 3
b101 -
b101 ?
1&
#22
0&
#23
b110 ?
b110 -
b110 3
b110 9
1&
#24
0&
#25
b111 9
b111 3
b111 -
b111 ?
1&
#26
0&
#27
1!
b1000 ?
1$
b1000 -
0#
b1000 3
1"
b1000 9
1&
#28
0&
#29
b1001 9
b1001 3
b1001 -
b1001 ?
1&
#30
0&
#31
b1010 ?
b1010 -
b1010 3
b1010 9
1&
#32
0&
#33
b1011 9
b1011 3
b1011 -
b1011 ?
1&
#34
0&
#35
b1100 ?
b1100 -
b1100 3
b1100 9
1&
#36
0&
#37
b1101 9
b1101 3
b1101 -
b1101 ?
1&
#38
0&
#39
b1110 ?
b1110 -
b1110 3
b1110 9
1&
#40
0&
#41
b1111 9
b1111 3
b1111 -
b1111 ?
1&
#42
0&
#43
b10000 ?
b10000 -
b10000 3
b10000 9
1&
#44
0&
#45
0"
b0 9
1#
b0 3
b1111 -
0,
0!
b0 ?
1&
#46
0&
#47
b1 ?
b1110 -
b1 3
b1 9
1&
#48
0&
#49
b10 9
b10 3
b1101 -
b10 ?
1&
#50
0&
#51
b11 ?
b1100 -
b11 3
b11 9
1&
#52
0&
#53
b100 9
b100 3
b1011 -
b100 ?
1&
#54
0&
#55
b101 ?
b1010 -
b101 3
b101 9
1&
#56
0&
#57
b110 9
b110 3
b1001 -
b110 ?
1&
#58
0&
#59
b111 ?
b1000 -
b111 3
b111 9
1&
#60
0&
#61
1"
b1000 9
0#
b1000 3
0$
b111 -
1!
b1000 ?
1&
#62
0&
#63
b1001 ?
b110 -
b1001 3
b1001 9
1&
#64
0&
#65
b1010 9
b1010 3
b101 -
b1010 ?
1&
#66
0&
#67
b1011 ?
b100 -
b1011 3
b1011 9
1&
#68
0&
#69
b1100 9
b1100 3
b11 -
b1100 ?
1&
#70
0&
#71
b1101 ?
b10 -
b1101 3
b1101 9
1&
#72
0&
#73
b1110 9
b1110 3
b1 -
b1110 ?
1&
#74
0&
#75
b1111 ?
b0 -
b1111 3
b1111 9
1&
#76
0&
#77
b10000 9
b10000 3
b1 -
1,
b10000 ?
1&
#78
0&
#79
0!
b0 ?
b10 -
1#
b0 3
0"
b0 9
1&
#80
0&
#81
b1 9
b1 3
b11 -
b1 ?
1&
#82
0&
#83
b10 ?
b100 -
b10 3
b10 9
1&
#84
0&
#85
b11 9
b11 3
b101 -
b11 ?
1&
#86
0&
#87
b100 ?
b110 -
b100 3
b100 9
1&
#88
0&
#89
b101 9
b101 3
b111 -
b101 ?
1&
#90
0&
#91
b110 ?
1$
b1000 -
b110 3
b110 9
1&
#92
0&
#93
b111 9
b111 3
b1001 -
b111 ?
1&
#94
0&
#95
1!
b1000 ?
b1010 -
0#
b1000 3
1"
b1000 9
1&
#96
0&
#97
b1001 9
b1001 3
b1011 -
b1001 ?
1&
#98
0&
#99
b1010 ?
b1100 -
b1010 3
b1010 9
1&
#100
0&
#101
b1011 9
b1011 3
b1101 -
b1011 ?
1&
#102
0&
#103
b1100 ?
b1110 -
b1100 3
b1100 9
1&
#104
0&
#105
b1101 9
b1101 3
b1111 -
b1101 ?
1&
#106
0&
#107
b1110 ?
b10000 -
b1110 3
b1110 9
1&
#108
0&
#109
b1111 9
b1111 3
b1111 -
0,
b1111 ?
1&
#110
0&
#111
b10000 ?
b1110 -
b10000 3
b10000 9
1&
#112
0&
#113
0"
b0 9
1#
b0 3
b1101 -
0!
b0 ?
1&
#114
0&
#115
b1 ?
b1100 -
b1 3
b1 9
1&
#116
0&
#117
b10 9
b10 3
b1011 -
b10 ?
1&
#118
0&
#119
b11 ?
b1010 -
b11 3
b11 9
1&
#120
0&
#121
b100 9
b100 3
b1001 -
b100 ?
1&
#122
0&
#123
b101 ?
b1000 -
b101 3
b101 9
1&
#124
0&
#125
b110 9
b110 3
0$
b111 -
b110 ?
1&
#126
0&
#127
b111 ?
b110 -
b111 3
b111 9
1&
#128
0&
#129
1"
b1000 9
0#
b1000 3
b101 -
1!
b1000 ?
1&
#130
0&
#131
b1001 ?
b100 -
b1001 3
b1001 9
1&
#132
0&
#133
b1010 9
b1010 3
b11 -
b1010 ?
1&
#134
0&
#135
b1011 ?
b10 -
b1011 3
b1011 9
1&
#136
0&
#137
b1100 9
b1100 3
b1 -
b1100 ?
1&
#138
0&
#139
b1101 ?
b0 -
b1101 3
b1101 9
1&
#140
0&
#141
b1110 9
b1110 3
b1 -
1,
b1110 ?
1&
#142
0&
#143
b1111 ?
b10 -
b1111 3
b1111 9
1&
#144
0&
#145
b10000 9
b10000 3
b11 -
b10000 ?
1&
#146
0&
#147
0!
b0 ?
b100 -
1#
b0 3
0"
b0 9
1&
#148
0&
#149
b1 9
b1 3
b101 -
b1 ?
1&
#150
0&
#151
b10 ?
b110 -
b10 3
b10 9
1&
#152
0&
#153
b11 9
b11 3
b111 -
b11 ?
1&
#154
0&
#155
b100 ?
1$
b1000 -
b100 3
b100 9
1&
#156
0&
#157
b101 9
b101 3
b1001 -
b101 ?
1&
#158
0&
#159
b110 ?
b1010 -
b110 3
b110 9
1&
#160
0&
#161
b111 9
b111 3
b1011 -
b111 ?
1&
#162
0&
#163
1!
b1000 ?
b1100 -
0#
b1000 3
1"
b1000 9
1&
#164
0&
#165
b1001 9
b1001 3
b1101 -
b1001 ?
1&
#166
0&
#167
b1010 ?
b1110 -
b1010 3
b1010 9
1&
#168
0&
#169
b1011 9
b1011 3
b1111 -
b1011 ?
1&
#170
0&
#171
b1100 ?
b10000 -
b1100 3
b1100 9
1&
#172
0&
#173
b1101 9
b1101 3
b1111 -
0,
b1101 ?
1&
#174
0&
#175
b1110 ?
b1110 -
b1110 3
b1110 9
1&
#176
0&
#177
b1111 9
b1111 3
b1101 -
b1111 ?
1&
#178
0&
#179
b10000 ?
b1100 -
b10000 3
b10000 9
1&
#180
0&
#181
0"
b0 9
1#
b0 3
b1011 -
0!
b0 ?
1&
#182
0&
#183
b1 ?
b1010 -
b1 3
b1 9
1&
#184
0&
#185
b10 9
b10 3
b1001 -
b10 ?
1&
#186
0&
#187
b11 ?
b1000 -
b11 3
b11 9
1&
#188
0&
#189
b100 9
b100 3
0$
b111 -
b100 ?
1&
#190
0&
#191
b101 ?
b110 -
b101 3
b101 9
1&
#192
0&
#193
b110 9
b110 3
b101 -
b110 ?
1&
#194
0&
#195
b111 ?
b100 -
b111 3
b111 9
1&
#196
0&
#197
1"
b1000 9
0#
b1000 3
b11 -
1!
b1000 ?
1&
#198
0&
#199
b1001 ?
b10 -
b1001 3
b1001 9
1&
#200
0&
#201
b1010 9
b1010 3
b1 -
b1010 ?
1&
#202
0&
#203
b1011 ?
b0 -
b1011 3
b1011 9
1&
#204
0&
#205
b1100 9
b1100 3
b1 -
1,
b1100 ?
1&
#206
0&
#207
b1101 ?
b10 -
b1101 3
b1101 9
1&
#208
0&
#209
b1110 9
b1110 3
b11 -
b1110 ?
1&
#210
0&
#211
b1111 ?
b100 -
b1111 3
b1111 9
1&
#212
0&
#213
b10000 9
b10000 3
b101 -
b10000 ?
1&
#214
0&
#215
0!
b0 ?
b110 -
1#
b0 3
0"
b0 9
1&
#216
0&
#217
b1 9
b1 3
b111 -
b1 ?
1&
#218
0&
#219
b10 ?
1$
b1000 -
b10 3
b10 9
1&
#220
0&
#221
b11 9
b11 3
b1001 -
b11 ?
1&
#222
0&
#223
b100 ?
b1010 -
b100 3
b100 9
1&
#224
0&
#225
b101 9
b101 3
b1011 -
b101 ?
1&
#226
0&
#227
b110 ?
b1100 -
b110 3
b110 9
1&
#228
0&
#229
b111 9
b111 3
b1101 -
b111 ?
1&
#230
0&
#231
1!
b1000 ?
b1110 -
0#
b1000 3
1"
b1000 9
1&
#232
0&
#233
b1001 9
b1001 3
b1111 -
b1001 ?
1&
#234
0&
#235
b1010 ?
b10000 -
b1010 3
b1010 9
1&
#236
0&
#237
b1011 9
b1011 3
b1111 -
0,
b1011 ?
1&
#238
0&
#239
b1100 ?
b1110 -
b1100 3
b1100 9
1&
#240
0&
#241
b1101 9
b1101 3
b1101 -
b1101 ?
1&
#242
0&
#243
b1110 ?
b1100 -
b1110 3
b1110 9
1&
#244
0&
#245
b1111 9
b1111 3
b1011 -
b1111 ?
1&
#246
0&
#247
b10000 ?
b1010 -
b10000 3
b10000 9
1&
#248
0&
#249
0"
b0 9
1#
b0 3
b1001 -
0!
b0 ?
1&
#250
0&
#251
b1 ?
b1000 -
b1 3
b1 9
1&
#252
0&
#253
b10 9
b10 3
0$
b111 -
b10 ?
1&
#254
0&
#255
b11 ?
b110 -
b11 3
b11 9
1&
#256
0&
#257
b100 9
b100 3
b101 -
b100 ?
1&
#258
0&
#259
b101 ?
b100 -
b101 3
b101 9
1&
#260
0&
#261
b110 9
b110 3
b11 -
b110 ?
1&
#262
0&
#263
b111 ?
b10 -
b111 3
b111 9
1&
#264
0&
#265
1"
b1000 9
0#
b1000 3
b1 -
1!
b1000 ?
1&
#266
0&
#267
b1001 ?
b0 -
b1001 3
b1001 9
1&
#268
0&
#269
b1010 9
b1010 3
b1 -
1,
b1010 ?
1&
#270
0&
#271
b1011 ?
b10 -
b1011 3
b1011 9
1&
#272
0&
#273
b1100 9
b1100 3
b11 -
b1100 ?
1&
#274
0&
#275
b1101 ?
b100 -
b1101 3
b1101 9
1&
#276
0&
#277
b1110 9
b1110 3
b101 -
b1110 ?
1&
#278
0&
#279
b1111 ?
b110 -
b1111 3
b1111 9
1&
#280
0&
#281
b10000 9
b10000 3
b111 -
b10000 ?
1&
#282
0&
#283
0!
b0 ?
1$
b1000 -
1#
b0 3
0"
b0 9
1&
#284
0&
#285
b1 9
b1 3
b1001 -
b1 ?
1&
#286
0&
#287
b10 ?
b1010 -
b10 3
b10 9
1&
#288
0&
#289
b11 9
b11 3
b1011 -
b11 ?
1&
#290
0&
#291
b100 ?
b1100 -
b100 3
b100 9
1&
#292
0&
#293
b101 9
b101 3
b1101 -
b101 ?
1&
#294
0&
#295
b110 ?
b1110 -
b110 3
b110 9
1&
#296
0&
#297
b111 9
b111 3
b1111 -
b111 ?
1&
#298
0&
#299
1!
b1000 ?
b10000 -
0#
b1000 3
1"
b1000 9
1&
#300
0&
#301
b1001 9
b1001 3
b1111 -
0,
b1001 ?
1&
#302
0&
#303
b1010 ?
b1110 -
b1010 3
b1010 9
1&
#304
0&
#305
b1011 9
b1011 3
b1101 -
b1011 ?
1&
#306
0&
#307
b1100 ?
b1100 -
b1100 3
b1100 9
1&
#308
0&
#309
b1101 9
b1101 3
b1011 -
b1101 ?
1&
#310
0&
#311
b1110 ?
b1010 -
b1110 3
b1110 9
1&
#312
0&
#313
b1111 9
b1111 3
b1001 -
b1111 ?
1&
#314
0&
#315
b10000 ?
b1000 -
b10000 3
b10000 9
1&
#316
0&
#317
0"
b0 9
1#
b0 3
0$
b111 -
0!
b0 ?
1&
#318
0&
#319
b1 ?
b110 -
b1 3
b1 9
1&
#320
0&
#321
b10 9
b10 3
b101 -
b10 ?
1&
#322
0&
#323
b11 ?
b100 -
b11 3
b11 9
1&
#324
0&
#325
b100 9
b100 3
b11 -
b100 ?
1&
#326
0&
#327
b101 ?
b10 -
b101 3
b101 9
1&
#328
0&
#329
b110 9
b110 3
b1 -
b110 ?
1&
#330
0&
#331
b111 ?
b0 -
b111 3
b111 9
1&
#332
0&
#333
1"
b1000 9
0#
b1000 3
b1 -
1,
1!
b1000 ?
1&
#334
0&
#335
b1001 ?
b10 -
b1001 3
b1001 9
1&
#336
0&
#337
b1010 9
b1010 3
b11 -
b1010 ?
1&
#338
0&
#339
b1011 ?
b100 -
b1011 3
b1011 9
1&
#340
0&
#341
b1100 9
b1100 3
b101 -
b1100 ?
1&
#342
0&
#343
b1101 ?
b110 -
b1101 3
b1101 9
1&
#344
0&
#345
b1110 9
b1110 3
b111 -
b1110 ?
1&
#346
0&
#347
b1111 ?
1$
b1000 -
b1111 3
b1111 9
1&
#348
0&
#349
b10000 9
b10000 3
b1001 -
b10000 ?
1&
#350
0&
#351
0!
b0 ?
b1010 -
1#
b0 3
0"
b0 9
1&
#352
0&
#353
b1 9
b1 3
b1011 -
b1 ?
1&
#354
0&
#355
b10 ?
b1100 -
b10 3
b10 9
1&
#356
0&
#357
b11 9
b11 3
b1101 -
b11 ?
1&
#358
0&
#359
b100 ?
b1110 -
b100 3
b100 9
1&
#360
0&
#361
b101 9
b101 3
b1111 -
b101 ?
1&
#362
0&
#363
b110 ?
b10000 -
b110 3
b110 9
1&
#364
0&
#365
b111 9
b111 3
b1111 -
0,
b111 ?
1&
#366
0&
#367
1!
b1000 ?
b1110 -
0#
b1000 3
1"
b1000 9
1&
#368
0&
#369
b1001 9
b1001 3
b1101 -
b1001 ?
1&
#370
0&
#371
b1010 ?
b1100 -
b1010 3
b1010 9
1&
#372
0&
#373
b1011 9
b1011 3
b1011 -
b1011 ?
1&
#374
0&
#375
b1100 ?
b1010 -
b1100 3
b1100 9
1&
#376
0&
#377
b1101 9
b1101 3
b1001 -
b1101 ?
1&
#378
0&
#379
b1110 ?
b1000 -
b1110 3
b1110 9
1&
#380
0&
#381
b1111 9
b1111 3
0$
b111 -
b1111 ?
1&
#382
0&
#383
b10000 ?
b110 -
b10000 3
b10000 9
1&
#384
0&
#385
0"
b0 9
1#
b0 3
b101 -
0!
b0 ?
1&
#386
0&
#387
b1 ?
b100 -
b1 3
b1 9
1&
#388
0&
#389
b10 9
b10 3
b11 -
b10 ?
1&
#390
0&
#391
b11 ?
b10 -
b11 3
b11 9
1&
#392
0&
#393
b100 9
b100 3
b1 -
b100 ?
1&
#394
0&
#395
b101 ?
b0 -
b101 3
b101 9
1&
#396
0&
#397
b110 9
b110 3
b1 -
1,
b110 ?
1&
#398
0&
#399
b111 ?
b10 -
b111 3
b111 9
1&
#400
0&
#401
1"
b1000 9
0#
b1000 3
b11 -
1!
b1000 ?
1&
#402
0&
#403
b1001 ?
b100 -
b1001 3
b1001 9
1&
#404
0&
#405
b1010 9
b1010 3
b101 -
b1010 ?
1&
#406
0&
#407
b1011 ?
b110 -
b1011 3
b1011 9
1&
#408
0&
#409
b1100 9
b1100 3
b111 -
b1100 ?
1&
#410
0&
#411
b1101 ?
1$
b1000 -
b1101 3
b1101 9
1&
#412
0&
#413
b1110 9
b1110 3
b1001 -
b1110 ?
1&
#414
0&
#415
b1111 ?
b1010 -
b1111 3
b1111 9
1&
#416
0&
#417
b10000 9
b10000 3
b1011 -
b10000 ?
1&
#418
0&
#419
0!
b0 ?
b1100 -
1#
b0 3
0"
b0 9
1&
#420
0&
#421
b1 9
b1 3
b1101 -
b1 ?
1&
#422
0&
#423
b10 ?
b1110 -
b10 3
b10 9
1&
#424
0&
#425
b11 9
b11 3
b1111 -
b11 ?
1&
#426
0&
#427
b100 ?
b10000 -
b100 3
b100 9
1&
#428
0&
#429
b101 9
b101 3
b1111 -
0,
b101 ?
1&
#430
0&
#431
b110 ?
b1110 -
b110 3
b110 9
1&
#432
0&
#433
b111 9
b111 3
b1101 -
b111 ?
1&
#434
0&
#435
1!
b1000 ?
b1100 -
0#
b1000 3
1"
b1000 9
1&
#436
0&
#437
b1001 9
b1001 3
b1011 -
b1001 ?
1&
#438
0&
#439
b1010 ?
b1010 -
b1010 3
b1010 9
1&
#440
0&
#441
b1011 9
b1011 3
b1001 -
b1011 ?
1&
#442
0&
#443
b1100 ?
b1000 -
b1100 3
b1100 9
1&
#444
0&
#445
b1101 9
b1101 3
0$
b111 -
b1101 ?
1&
#446
0&
#447
b1110 ?
b110 -
b1110 3
b1110 9
1&
#448
0&
#449
b1111 9
b1111 3
b101 -
b1111 ?
1&
#450
0&
#451
b10000 ?
b100 -
b10000 3
b10000 9
1&
#452
0&
#453
0"
b0 9
1#
b0 3
b11 -
0!
b0 ?
1&
#454
0&
#455
b1 ?
b10 -
b1 3
b1 9
1&
#456
0&
#457
b10 9
b10 3
b1 -
b10 ?
1&
#458
0&
#459
b11 ?
b0 -
b11 3
b11 9
1&
#460
0&
#461
b100 9
b100 3
b1 -
1,
b100 ?
1&
#462
0&
#463
b101 ?
b10 -
b101 3
b101 9
1&
#464
0&
#465
b110 9
b110 3
b11 -
b110 ?
1&
#466
0&
#467
b111 ?
b100 -
b111 3
b111 9
1&
#468
0&
#469
1"
b1000 9
0#
b1000 3
b101 -
1!
b1000 ?
1&
#470
0&
#471
b1001 ?
b110 -
b1001 3
b1001 9
1&
#472
0&
#473
b1010 9
b1010 3
b111 -
b1010 ?
1&
#474
0&
#475
b1011 ?
1$
b1000 -
b1011 3
b1011 9
1&
#476
0&
#477
b1100 9
b1100 3
b1001 -
b1100 ?
1&
#478
0&
#479
b1101 ?
b1010 -
b1101 3
b1101 9
1&
#480
0&
#481
b1110 9
b1110 3
b1011 -
b1110 ?
1&
#482
0&
#483
b1111 ?
b1100 -
b1111 3
b1111 9
1&
#484
0&
#485
b10000 9
b10000 3
b1101 -
b10000 ?
1&
#486
0&
#487
0!
b0 ?
b1110 -
1#
b0 3
0"
b0 9
1&
#488
0&
#489
b1 9
b1 3
b1111 -
b1 ?
1&
#490
0&
#491
b10 ?
b10000 -
b10 3
b10 9
1&
#492
0&
#493
b11 9
b11 3
b1111 -
0,
b11 ?
1&
#494
0&
#495
b100 ?
b1110 -
b100 3
b100 9
1&
#496
0&
#497
b101 9
b101 3
b1101 -
b101 ?
1&
#498
0&
#499
b110 ?
b1100 -
b110 3
b110 9
1&
#500
0&
#501
b111 9
b111 3
b1011 -
b111 ?
1&
#502
0&
#503
1!
b1000 ?
b1010 -
0#
b1000 3
1"
b1000 9
1&
#504
0&
#505
b1001 9
b1001 3
b1001 -
b1001 ?
1&
#506
0&
#507
b1010 ?
b1000 -
b1010 3
b1010 9
1&
#508
0&
#509
b1011 9
b1011 3
0$
b111 -
b1011 ?
1&
#510
0&
#511
b1100 ?
b110 -
b1100 3
b1100 9
1&
#512
0&
#513
b1101 9
b1101 3
b101 -
b1101 ?
1&
#514
0&
#515
b1110 ?
b100 -
b1110 3
b1110 9
1&
#516
0&
#517
b1111 9
b1111 3
b11 -
b1111 ?
1&
#518
0&
#519
b10000 ?
b10 -
b10000 3
b10000 9
1&
#520
0&
#521
0"
b0 9
1#
b0 3
b1 -
0!
b0 ?
1&
#522
0&
#523
b1 ?
b0 -
b1 3
b1 9
1&
#524
0&
#525
b10 9
b10 3
b1 -
1,
b10 ?
1&
#526
0&
#527
b11 ?
b10 -
b11 3
b11 9
1&
#528
0&
#529
b100 9
b100 3
b11 -
b100 ?
1&
#530
0&
#531
b101 ?
b100 -
b101 3
b101 9
1&
#532
0&
#533
b110 9
b110 3
b101 -
b110 ?
1&
#534
0&
#535
b111 ?
b110 -
b111 3
b111 9
1&
#536
0&
#537
1"
b1000 9
0#
b1000 3
b111 -
1!
b1000 ?
1&
#538
0&
#539
b1001 ?
1$
b1000 -
b1001 3
b1001 9
1&
#540
0&
#541
b1010 9
b1010 3
b1001 -
b1010 ?
1&
#542
0&
#543
b1011 ?
b1010 -
b1011 3
b1011 9
1&
#544
0&
#545
b1100 9
b1100 3
b1011 -
b1100 ?
1&
#546
0&
#547
b1101 ?
b1100 -
b1101 3
b1101 9
1&
#548
0&
#549
b1110 9
b1110 3
b1101 -
b1110 ?
1&
#550
0&
#551
b1111 ?
b1110 -
b1111 3
b1111 9
1&
#552
0&
#553
b10000 9
b10000 3
b1111 -
b10000 ?
1&
#554
0&
#555
0!
b0 ?
b10000 -
1#
b0 3
0"
b0 9
1&
#556
0&
#557
b1 9
b1 3
b1111 -
0,
b1 ?
1&
#558
0&
#559
b10 ?
b1110 -
b10 3
b10 9
1&
#560
0&
#561
b11 9
b11 3
b1101 -
b11 ?
1&
#562
0&
#563
b100 ?
b1100 -
b100 3
b100 9
1&
#564
0&
#565
b101 9
b101 3
b1011 -
b101 ?
1&
#566
0&
#567
b110 ?
b1010 -
b110 3
b110 9
1&
#568
0&
#569
b111 9
b111 3
b1001 -
b111 ?
1&
#570
0&
#571
1!
b1000 ?
b1000 -
0#
b1000 3
1"
b1000 9
1&
#572
0&
#573
b1001 9
b1001 3
0$
b111 -
b1001 ?
1&
#574
0&
#575
b1010 ?
b110 -
b1010 3
b1010 9
1&
#576
0&
#577
b1011 9
b1011 3
b101 -
b1011 ?
1&
#578
0&
#579
b1100 ?
b100 -
b1100 3
b1100 9
1&
#580
0&
#581
b1101 9
b1101 3
b11 -
b1101 ?
1&
#582
0&
#583
b1110 ?
b10 -
b1110 3
b1110 9
1&
#584
0&
#585
b1111 9
b1111 3
b1 -
b1111 ?
1&
#586
0&
#587
b10000 ?
b0 -
b10000 3
b10000 9
1&
#588
0&
#589
0"
b0 9
1#
b0 3
b1 -
1,
0!
b0 ?
1&
#590
0&
#591
b1 ?
b10 -
b1 3
b1 9
1&
#592
0&
#593
b10 9
b10 3
b11 -
b10 ?
1&
#594
0&
#595
b11 ?
b100 -
b11 3
b11 9
1&
#596
0&
#597
b100 9
b100 3
b101 -
b100 ?
1&
#598
0&
#599
b101 ?
b110 -
b101 3
b101 9
1&
#600
0&
#601
b110 9
b110 3
b111 -
b110 ?
1&
#602
0&
#603
b111 ?
1$
b1000 -
b111 3
b111 9
1&
#604
0&
#605
1"
b1000 9
0#
b1000 3
b1001 -
1!
b1000 ?
1&
#606
0&
#607
b1001 ?
b1010 -
b1001 3
b1001 9
1&
#608
0&
#609
b1010 9
b1010 3
b1011 -
b1010 ?
1&
#610
0&
#611
b1011 ?
b1100 -
b1011 3
b1011 9
1&
#612
0&
#613
b1100 9
b1100 3
b1101 -
b1100 ?
1&
#614
0&
#615
b1101 ?
b1110 -
b1101 3
b1101 9
1&
#616
0&
#617
b1110 9
b1110 3
b1111 -
b1110 ?
1&
#618
0&
#619
b1111 ?
b10000 -
b1111 3
b1111 9
1&
#620
0&
#621
b10000 9
b10000 3
b1111 -
0,
b10000 ?
1&
#622
0&
#623
0!
b0 ?
b1110 -
1#
b0 3
0"
b0 9
1&
#624
0&
#625
b1 9
b1 3
b1101 -
b1 ?
1&
#626
0&
#627
b10 ?
b1100 -
b10 3
b10 9
1&
#628
0&
#629
b11 9
b11 3
b1011 -
b11 ?
1&
#630
0&
#631
b100 ?
b1010 -
b100 3
b100 9
1&
#632
0&
#633
b101 9
b101 3
b1001 -
b101 ?
1&
#634
0&
#635
b110 ?
b1000 -
b110 3
b110 9
1&
#636
0&
#637
b111 9
b111 3
0$
b111 -
b111 ?
1&
#638
0&
#639
1!
b1000 ?
b110 -
0#
b1000 3
1"
b1000 9
1&
#640
0&
#641
b1001 9
b1001 3
b101 -
b1001 ?
1&
#642
0&
#643
b1010 ?
b100 -
b1010 3
b1010 9
1&
#644
0&
#645
b1011 9
b1011 3
b11 -
b1011 ?
1&
#646
0&
#647
b1100 ?
b10 -
b1100 3
b1100 9
1&
#648
0&
#649
b1101 9
b1101 3
b1 -
b1101 ?
1&
#650
0&
#651
b1110 ?
b0 -
b1110 3
b1110 9
1&
#652
0&
#653
b1111 9
b1111 3
b1 -
1,
b1111 ?
1&
#654
0&
#655
b10000 ?
b10 -
b10000 3
b10000 9
1&
#656
0&
#657
0"
b0 9
1#
b0 3
b11 -
0!
b0 ?
1&
#658
0&
#659
b1 ?
b100 -
b1 3
b1 9
1&
#660
0&
#661
b10 9
b10 3
b101 -
b10 ?
1&
#662
0&
#663
b11 ?
b110 -
b11 3
b11 9
1&
#664
0&
#665
b100 9
b100 3
b111 -
b100 ?
1&
#666
0&
#667
b101 ?
1$
b1000 -
b101 3
b101 9
1&
#668
0&
#669
b110 9
b110 3
b1001 -
b110 ?
1&
#670
0&
#671
b111 ?
b1010 -
b111 3
b111 9
1&
#672
0&
#673
1"
b1000 9
0#
b1000 3
b1011 -
1!
b1000 ?
1&
#674
0&
#675
b1001 ?
b1100 -
b1001 3
b1001 9
1&
#676
0&
#677
b1010 9
b1010 3
b1101 -
b1010 ?
1&
#678
0&
#679
b1011 ?
b1110 -
b1011 3
b1011 9
1&
#680
0&
#681
b1100 9
b1100 3
b1111 -
b1100 ?
1&
#682
0&
#683
b1101 ?
b10000 -
b1101 3
b1101 9
1&
#684
0&
#685
b1110 9
b1110 3
b1111 -
0,
b1110 ?
1&
#686
0&
#687
b1111 ?
b1110 -
b1111 3
b1111 9
1&
#688
0&
#689
b10000 9
b10000 3
b1101 -
b10000 ?
1&
#690
0&
#691
0!
b0 ?
b1100 -
1#
b0 3
0"
b0 9
1&
#692
0&
#693
b1 9
b1 3
b1011 -
b1 ?
1&
#694
0&
#695
b10 ?
b1010 -
b10 3
b10 9
1&
#696
0&
#697
b11 9
b11 3
b1001 -
b11 ?
1&
#698
0&
#699
b100 ?
b1000 -
b100 3
b100 9
1&
#700
0&
#701
b101 9
b101 3
0$
b111 -
b101 ?
1&
#702
0&
#703
b110 ?
b110 -
b110 3
b110 9
1&
#704
0&
#705
b111 9
b111 3
b101 -
b111 ?
1&
#706
0&
#707
1!
b1000 ?
b100 -
0#
b1000 3
1"
b1000 9
1&
#708
0&
#709
b1001 9
b1001 3
b11 -
b1001 ?
1&
#710
0&
#711
b1010 ?
b10 -
b1010 3
b1010 9
1&
#712
0&
#713
b1011 9
b1011 3
b1 -
b1011 ?
1&
#714
0&
#715
b1100 ?
b0 -
b1100 3
b1100 9
1&
#716
0&
#717
b1101 9
b1101 3
b1 -
1,
b1101 ?
1&
#718
0&
#719
b1110 ?
b10 -
b1110 3
b1110 9
1&
#720
0&
#721
b1111 9
b1111 3
b11 -
b1111 ?
1&
#722
0&
#723
b10000 ?
b100 -
b10000 3
b10000 9
1&
#724
0&
#725
0"
b0 9
1#
b0 3
b101 -
0!
b0 ?
1&
#726
0&
#727
b1 ?
b110 -
b1 3
b1 9
1&
#728
0&
#729
b10 9
b10 3
b111 -
b10 ?
1&
#730
0&
#731
b11 ?
1$
b1000 -
b11 3
b11 9
1&
#732
0&
#733
b100 9
b100 3
b1001 -
b100 ?
1&
#734
0&
#735
b101 ?
b1010 -
b101 3
b101 9
1&
#736
0&
#737
b110 9
b110 3
b1011 -
b110 ?
1&
#738
0&
#739
b111 ?
b1100 -
b111 3
b111 9
1&
#740
0&
#741
1"
b1000 9
0#
b1000 3
b1101 -
1!
b1000 ?
1&
#742
0&
#743
b1001 ?
b1110 -
b1001 3
b1001 9
1&
#744
0&
#745
b1010 9
b1010 3
b1111 -
b1010 ?
1&
#746
0&
#747
b1011 ?
b10000 -
b1011 3
b1011 9
1&
#748
0&
#749
b1100 9
b1100 3
b1111 -
0,
b1100 ?
1&
#750
0&
#751
b1101 ?
b1110 -
b1101 3
b1101 9
1&
#752
0&
#753
b1110 9
b1110 3
b1101 -
b1110 ?
1&
#754
0&
#755
b1111 ?
b1100 -
b1111 3
b1111 9
1&
#756
0&
#757
b10000 9
b10000 3
b1011 -
b10000 ?
1&
#758
0&
#759
0!
b0 ?
b1010 -
1#
b0 3
0"
b0 9
1&
#760
0&
#761
b1 9
b1 3
b1001 -
b1 ?
1&
#762
0&
#763
b10 ?
b1000 -
b10 3
b10 9
1&
#764
0&
#765
b11 9
b11 3
0$
b111 -
b11 ?
1&
#766
0&
#767
b100 ?
b110 -
b100 3
b100 9
1&
#768
0&
#769
b101 9
b101 3
b101 -
b101 ?
1&
#770
0&
#771
b110 ?
b100 -
b110 3
b110 9
1&
#772
0&
#773
b111 9
b111 3
b11 -
b111 ?
1&
#774
0&
